{
  "project_info": {
    "project_number": "1017729209128",
    "firebase_url": "https://sample-75715.firebaseio.com",
    "project_id": "sample-75715",
    "storage_bucket": "sample-75715.appspot.com"
  },
  "client": [
    {
      "client_info": {
        "mobilesdk_app_id": "1:1017729209128:android:6e66dc46220c40c4",
        "android_client_info": {
          "package_name": "com.mis49m.firebase"
        }
      },
      "oauth_client": [
        {
          "client_id": "1017729209128-c3g2odj01760s5p4793m8n12rghup0ol.apps.googleusercontent.com",
          "client_type": 3
        }
      ],
      "api_key": [
        {
          "current_key": "AIzaSyBaHRgzBrNiruGVO1evRomI8kyBFazmU7E"
        }
      ],
      "services": {
        "analytics_service": {
          "status": 1
        },
        "appinvite_service": {
          "status": 1,
          "other_platform_oauth_client": []
        },
        "ads_service": {
          "status": 2
        }
      }
    }
  ],
  "configuration_version": "1"
}